Simulation/transcript
# vsim HTL8237_tb -c -do "set StdArithNoWarnings 1; run -all; quit -f" 
# Start time: 15:53:55 on Nov 18,2023
# //  ModelSim DE-64 2023.4 Oct  9 2023
# //
# //  Copyright 1991-2023 Mentor Graphics Corporation
# //  All Rights Reserved.
# //
# //  ModelSim DE-64 and its associated documentation contain trade
# //  secrets and commercial or financial information that are the property of
# //  Mentor Graphics Corporation and are privileged, confidential,
# //  and exempt from disclosure under the Freedom of Information Act,
# //  5 U.S.C. Section 552. Furthermore, this information
# //  is prohibited from disclosure under the Trade Secrets Act,
# //  18 U.S.C. Section 1905.
# //
# Loading std.standard
# Loading std.textio(body)
# Loading ieee.std_logic_1164(body)
# Loading ieee.numeric_std(body)
# Loading ieee.std_logic_arith(body)
# Loading ieee.std_logic_unsigned(body)
# Loading work.utils(body)
# Loading work.htl8237_tb(behavioral)
# Loading work.pack8237
# Loading work.htl8237(struct)
# Loading work.blk37(struct)
# Loading work.channel(rtl)
# Loading work.dreqack(rtl)
# Loading work.fsm37(fsm)
# Loading work.ioblk(behavioral)
# Loading work.sram(behavior)
# Loading work.stimulus(behavioral)
# set StdArithNoWarnings 1
# 1
#  run -all
# Initializing SRAM with zero ...
# Loading SRAM from file pattern_l.dat ... 
# ** Warning: NUMERIC_STD."=": metavalue detected, returning FALSE
#    Time: 0 ns  Iteration: 0  Instance: /htl8237_tb/MASTER/TOP37/ICH3
# ** Warning: NUMERIC_STD."=": metavalue detected, returning FALSE
#    Time: 0 ns  Iteration: 0  Instance: /htl8237_tb/MASTER/TOP37/ICH2
# ** Warning: NUMERIC_STD."=": metavalue detected, returning FALSE
#    Time: 0 ns  Iteration: 0  Instance: /htl8237_tb/MASTER/TOP37/ICH1
# ** Warning: NUMERIC_STD."=": metavalue detected, returning FALSE
#    Time: 0 ns  Iteration: 0  Instance: /htl8237_tb/MASTER/TOP37/ICH0
# ** Warning: NUMERIC_STD."=": metavalue detected, returning FALSE
#    Time: 0 ns  Iteration: 0  Instance: /htl8237_tb/DUT/TOP37/ICH3
# ** Warning: NUMERIC_STD."=": metavalue detected, returning FALSE
#    Time: 0 ns  Iteration: 0  Instance: /htl8237_tb/DUT/TOP37/ICH2
# ** Warning: NUMERIC_STD."=": metavalue detected, returning FALSE
#    Time: 0 ns  Iteration: 0  Instance: /htl8237_tb/DUT/TOP37/ICH1
# ** Warning: NUMERIC_STD."=": metavalue detected, returning FALSE
#    Time: 0 ns  Iteration: 0  Instance: /htl8237_tb/DUT/TOP37/ICH0
#  ======================= Init Master 8239 ==================================== 
#  ======================= Single Transfer Read Test =========================== 
#  ----------- HTL8237 status before memory to IO transfer -------------------- 
#  CH0:A=0000 C=0000  CH1:A=0000 C=0000  CH2:A=0000 C=0004  CH3:A=0000 C=0000
#  MD0:D,A++,  ,VF    MD1:D,A++,  ,VF    MD2:D,A++,  ,VF    MD3:D,A++,  ,VF   
#  Status=00 Mask=B Request=0 Command=00 Temp=00
#  Start DMA Test 0 Addr++, 5 bytes, address 10000-10004
#  DACK2 Asserted
#    IO DMA Write channel 2 H
#    CPU has access to the bus
#  DACK2 Asserted
#    IO DMA Write channel 2 e
#    CPU has access to the bus
#  DACK2 Asserted
#    IO DMA Write channel 2 l
#    CPU has access to the bus
#  DACK2 Asserted
#    IO DMA Write channel 2 l
#    CPU has access to the bus
#  DACK2 Asserted
#    IO DMA Write channel 2 o
#  EOP Asserted Channel 2
#    CPU has access to the bus
#  ----------- 82C37 status after memory to IO transfer ---------------------- 
#  CH0:A=0000 C=0000  CH1:A=0000 C=0000  CH2:A=0005 C=FFFF  CH3:A=0000 C=0000
#  MD0:D,A++,  ,VF    MD1:D,A++,  ,VF    MD2:D,A++,  ,VF    MD3:D,A++,  ,VF   
#  Status=04 Mask=F Request=0 Command=00 Temp=00
# 
#  ----------- HTL8237 status before memory to IO transfer -------------------- 
#  CH0:A=0000 C=0000  CH1:A=0000 C=0000  CH2:A=0000 C=0004  CH3:A=0000 C=0000
#  MD0:D,A++,  ,VF    MD1:D,A++,  ,VF    MD2:D,A++,  ,VF    MD3:D,A++,  ,VF   
#  Status=00 Mask=B Request=0 Command=00 Temp=00
#  Start DMA Test 1 Addr++, 5 bytes, address 10000-10004, AutoInit
#  DACK2 Asserted
#    IO DMA Write channel 2 H
#    CPU has access to the bus
#  DACK2 Asserted
#    IO DMA Write channel 2 e
#    CPU has access to the bus
#  DACK2 Asserted
#    IO DMA Write channel 2 l
#    CPU has access to the bus
#  DACK2 Asserted
#    IO DMA Write channel 2 l
#    CPU has access to the bus
#  DACK2 Asserted
#    IO DMA Write channel 2 o
#  EOP Asserted Channel 2
#    CPU has access to the bus
#  ----------- 82C37 status after memory to IO transfer ---------------------- 
#  CH0:A=0000 C=0000  CH1:A=0000 C=0000  CH2:A=0000 C=0004  CH3:A=0000 C=0000
#  MD0:D,A++,  ,VF    MD1:D,A++,  ,VF    MD2:D,A++,  ,VF    MD3:D,A++,  ,VF   
#  Status=04 Mask=B Request=0 Command=00 Temp=00
# 
#  ----------- HTL8237 status before memory to IO transfer -------------------- 
#  CH0:A=0000 C=0000  CH1:A=0000 C=0000  CH2:A=0004 C=0004  CH3:A=0000 C=0000
#  MD0:D,A++,  ,VF    MD1:D,A++,  ,VF    MD2:D,A++,  ,VF    MD3:D,A++,  ,VF   
#  Status=00 Mask=B Request=0 Command=20 Temp=00 Extended Write
#  Start DMA Test 2 Addr--, 5 bytes, address 10004-10000, Extended write
#  DACK2 Asserted
#    IO DMA Write channel 2 o
#    IO DMA Write channel 2 o
#    CPU has access to the bus
#  DACK2 Asserted
#    IO DMA Write channel 2 l
#    IO DMA Write channel 2 l
#    CPU has access to the bus
#  DACK2 Asserted
#    IO DMA Write channel 2 l
#    IO DMA Write channel 2 l
#    CPU has access to the bus
#  DACK2 Asserted
#    IO DMA Write channel 2 e
#    IO DMA Write channel 2 e
#    CPU has access to the bus
#  DACK2 Asserted
#    IO DMA Write channel 2 H
#    IO DMA Write channel 2 H
#  EOP Asserted Channel 2
#    CPU has access to the bus
#  ----------- 82C37 status after memory to IO transfer ---------------------- 
#  CH0:A=0000 C=0000  CH1:A=0000 C=0000  CH2:A=FFFF C=FFFF  CH3:A=0000 C=0000
#  MD0:D,A++,  ,VF    MD1:D,A++,  ,VF    MD2:D,A++,  ,VF    MD3:D,A++,  ,VF   
#  Status=04 Mask=F Request=0 Command=20 Temp=00 Extended Write
# 
#  ----------- HTL8237 status before memory to IO transfer -------------------- 
#  CH0:A=0000 C=0000  CH1:A=0000 C=0000  CH2:A=0004 C=0004  CH3:A=0000 C=0000
#  MD0:D,A++,  ,VF    MD1:D,A++,  ,VF    MD2:D,A++,  ,VF    MD3:D,A++,  ,VF   
#  Status=00 Mask=B Request=0 Command=08 Temp=00 Compressed Timing
#  Start DMA Test 3 Addr--, 5 bytes, address 10004-10000, Compressed timing, Autoinit
#  DACK2 Asserted
#    IO DMA Write channel 2 o
#    CPU has access to the bus
#  DACK2 Asserted
#    IO DMA Write channel 2 l
#    CPU has access to the bus
#  DACK2 Asserted
#    IO DMA Write channel 2 l
#    CPU has access to the bus
#  DACK2 Asserted
#    IO DMA Write channel 2 e
#    CPU has access to the bus
#  DACK2 Asserted
#    IO DMA Write channel 2 H
#  EOP Asserted Channel 2
#    CPU has access to the bus
#  ----------- 82C37 status after memory to IO transfer ---------------------- 
#  CH0:A=0000 C=0000  CH1:A=0000 C=0000  CH2:A=FFFF C=FFFF  CH3:A=0000 C=0000
#  MD0:D,A++,  ,VF    MD1:D,A++,  ,VF    MD2:D,A++,  ,VF    MD3:D,A++,  ,VF   
#  Status=04 Mask=F Request=0 Command=08 Temp=00 Compressed Timing
# 
#  ----------- HTL8237 status before memory to IO transfer -------------------- 
#  CH0:A=0000 C=0000  CH1:A=0000 C=0000  CH2:A=0004 C=0004  CH3:A=0000 C=0000
#  MD0:D,A++,  ,VF    MD1:D,A++,  ,VF    MD2:D,A++,  ,VF    MD3:D,A++,  ,VF   
#  Status=00 Mask=B Request=0 Command=00 Temp=00
#  Start DMA Test 4 Addr++, 5 bytes, address 10000-10004, Verify transfer
#  DACK2 Asserted
#    CPU has access to the bus
#  DACK2 Asserted
#    CPU has access to the bus
#  DACK2 Asserted
#    CPU has access to the bus
#  DACK2 Asserted
#    CPU has access to the bus
#  DACK2 Asserted
#  EOP Asserted Channel 2
#    CPU has access to the bus
#  ----------- 82C37 status after memory to IO transfer ---------------------- 
#  CH0:A=0000 C=0000  CH1:A=0000 C=0000  CH2:A=0009 C=FFFF  CH3:A=0000 C=0000
#  MD0:D,A++,  ,VF    MD1:D,A++,  ,VF    MD2:D,A++,  ,VF    MD3:D,A++,  ,VF   
#  Status=04 Mask=F Request=0 Command=00 Temp=00
# 
#  ======================= Single Transfer Write Test ========================== 
# 80100 : xx xx xx xx xx xx xx xx xx xx xx xx xx xx xx xx 
# 80110 : xx xx xx xx xx xx xx xx xx xx xx xx xx xx xx xx 
# 80120 : xx xx xx xx xx xx xx xx xx xx xx xx xx xx xx xx 
#  ----------- HTL8237 status before memory to IO transfer -------------------- 
#  CH0:A=0000 C=0000  CH1:A=0000 C=0000  CH2:A=0100 C=0004  CH3:A=0000 C=0000
#  MD0:D,A++,  ,VF    MD1:D,A++,  ,VF    MD2:D,A++,  ,VF    MD3:D,A++,  ,VF   
#  Status=00 Mask=B Request=0 Command=00 Temp=00
#  Start DMA Test 0 Addr++, 5 bytes, address 80100-80104
#  DACK2 Asserted
#    IO DMA Read channel 2 
#    IO DMA Read channel 2 
#    CPU has access to the bus
#  DACK2 Asserted
#    IO DMA Read channel 2 
#    IO DMA Read channel 2 
#    CPU has access to the bus
#  DACK2 Asserted
#    IO DMA Read channel 2 
#    IO DMA Read channel 2 
#    CPU has access to the bus
#  DACK2 Asserted
#    IO DMA Read channel 2 
#    IO DMA Read channel 2 
#    CPU has access to the bus
#  DACK2 Asserted
#    IO DMA Read channel 2 
#    IO DMA Read channel 2 
#  EOP Asserted Channel 2
#    CPU has access to the bus
#  ----------- 82C37 status after memory to IO transfer ---------------------- 
#  CH0:A=0000 C=0000  CH1:A=0000 C=0000  CH2:A=0105 C=FFFF  CH3:A=0000 C=0000
#  MD0:D,A++,  ,VF    MD1:D,A++,  ,VF    MD2:D,A++,  ,VF    MD3:D,A++,  ,VF   
#  Status=04 Mask=F Request=0 Command=00 Temp=00
# 
# 80100 : 38 32 43 33 39 xx xx xx xx xx xx xx xx xx xx xx 
# 80110 : xx xx xx xx xx xx xx xx xx xx xx xx xx xx xx xx 
# 80120 : xx xx xx xx xx xx xx xx xx xx xx xx xx xx xx xx 
#  ----------- HTL8237 status before memory to IO transfer -------------------- 
#  CH0:A=0000 C=0000  CH1:A=0000 C=0000  CH2:A=0100 C=0004  CH3:A=0000 C=0000
#  MD0:D,A++,  ,VF    MD1:D,A++,  ,VF    MD2:D,A++,  ,VF    MD3:D,A++,  ,VF   
#  Status=00 Mask=B Request=0 Command=00 Temp=00
#  Start DMA Test 1 Addr++, 5 bytes, address 80100-80104, AutoInit
#  DACK2 Asserted
#    IO DMA Read channel 2 
#    IO DMA Read channel 2 
#    CPU has access to the bus
#  DACK2 Asserted
#    IO DMA Read channel 2 
#    IO DMA Read channel 2 
#    CPU has access to the bus
#  DACK2 Asserted
#    IO DMA Read channel 2 
#    IO DMA Read channel 2 
#    CPU has access to the bus
#  DACK2 Asserted
#    IO DMA Read channel 2 
#    IO DMA Read channel 2 
#    CPU has access to the bus
#  DACK2 Asserted
#    IO DMA Read channel 2 
#    IO DMA Read channel 2 
#  EOP Asserted Channel 2
#    CPU has access to the bus
#  ----------- 82C37 status after memory to IO transfer ---------------------- 
#  CH0:A=0000 C=0000  CH1:A=0000 C=0000  CH2:A=0100 C=0004  CH3:A=0000 C=0000
#  MD0:D,A++,  ,VF    MD1:D,A++,  ,VF    MD2:D,A++,  ,VF    MD3:D,A++,  ,VF   
#  Status=04 Mask=B Request=0 Command=00 Temp=00
# 
# 80100 : 38 32 43 33 39 xx xx xx xx xx xx xx xx xx xx xx 
# 80110 : xx xx xx xx xx xx xx xx xx xx xx xx xx xx xx xx 
# 80120 : xx xx xx xx xx xx xx xx xx xx xx xx xx xx xx xx 
#  ----------- HTL8237 status before memory to IO transfer -------------------- 
#  CH0:A=0000 C=0000  CH1:A=0000 C=0000  CH2:A=0110 C=0004  CH3:A=0000 C=0000
#  MD0:D,A++,  ,VF    MD1:D,A++,  ,VF    MD2:D,A++,  ,VF    MD3:D,A++,  ,VF   
#  Status=00 Mask=B Request=0 Command=20 Temp=00 Extended Write
#  Start DMA Test 2 Addr--, 5 bytes, address 80110-80110, Extended write
#  DACK2 Asserted
#    IO DMA Read channel 2 
#    IO DMA Read channel 2 
#    CPU has access to the bus
#  DACK2 Asserted
#    IO DMA Read channel 2 
#    IO DMA Read channel 2 
#    CPU has access to the bus
#  DACK2 Asserted
#    IO DMA Read channel 2 
#    IO DMA Read channel 2 
#    CPU has access to the bus
#  DACK2 Asserted
#    IO DMA Read channel 2 
#    IO DMA Read channel 2 
#    CPU has access to the bus
#  DACK2 Asserted
#    IO DMA Read channel 2 
#    IO DMA Read channel 2 
#  EOP Asserted Channel 2
#    CPU has access to the bus
#  ----------- 82C37 status after memory to IO transfer ---------------------- 
#  CH0:A=0000 C=0000  CH1:A=0000 C=0000  CH2:A=010B C=FFFF  CH3:A=0000 C=0000
#  MD0:D,A++,  ,VF    MD1:D,A++,  ,VF    MD2:D,A++,  ,VF    MD3:D,A++,  ,VF   
#  Status=04 Mask=F Request=0 Command=20 Temp=00 Extended Write
# 
# 80100 : 38 32 43 33 39 xx xx xx xx xx xx xx 39 33 43 32 
# 80110 : 38 xx xx xx xx xx xx xx xx xx xx xx xx xx xx xx 
# 80120 : xx xx xx xx xx xx xx xx xx xx xx xx xx xx xx xx 
#  ----------- HTL8237 status before memory to IO transfer -------------------- 
#  CH0:A=0000 C=0000  CH1:A=0000 C=0000  CH2:A=0120 C=0004  CH3:A=0000 C=0000
#  MD0:D,A++,  ,VF    MD1:D,A++,  ,VF    MD2:D,A++,  ,VF    MD3:D,A++,  ,VF   
#  Status=00 Mask=B Request=0 Command=08 Temp=00 Compressed Timing
#  Start DMA Test 3 Addr--, 5 bytes, address 80120-80120, Compressed timing, Autoinit
#  DACK2 Asserted
#    IO DMA Read channel 2 
#    CPU has access to the bus
#  DACK2 Asserted
#    IO DMA Read channel 2 
#    CPU has access to the bus
#  DACK2 Asserted
#    IO DMA Read channel 2 
#    CPU has access to the bus
#  DACK2 Asserted
#    IO DMA Read channel 2 
#    CPU has access to the bus
#  DACK2 Asserted
#    IO DMA Read channel 2 
#  EOP Asserted Channel 2
#    CPU has access to the bus
#  ----------- 82C37 status after memory to IO transfer ---------------------- 
#  CH0:A=0000 C=0000  CH1:A=0000 C=0000  CH2:A=011B C=FFFF  CH3:A=0000 C=0000
#  MD0:D,A++,  ,VF    MD1:D,A++,  ,VF    MD2:D,A++,  ,VF    MD3:D,A++,  ,VF   
#  Status=04 Mask=F Request=0 Command=08 Temp=00 Compressed Timing
# 
# 80100 : 38 32 43 33 39 xx xx xx xx xx xx xx 39 33 43 32 
# 80110 : 38 xx xx xx xx xx xx xx xx xx xx xx 39 33 43 32 
# 80120 : 38 xx xx xx xx xx xx xx xx xx xx xx xx xx xx xx 
#  ======================= Block Read Transfer Test ============================ 
#  ----------- HTL8237 status before memory to IO transfer -------------------- 
#  CH0:A=0000 C=0000  CH1:A=0000 C=0000  CH2:A=0000 C=0004  CH3:A=0000 C=0000
#  MD0:D,A++,  ,VF    MD1:D,A++,  ,VF    MD2:D,A++,  ,VF    MD3:D,A++,  ,VF   
#  Status=00 Mask=B Request=0 Command=00 Temp=00
#  Start DMA Test 0 Addr++, 5 bytes, address 10000-10004
#  DACK2 Asserted
#    IO DMA Write channel 2 H
#    IO DMA Write channel 2 e
#    IO DMA Write channel 2 l
#    IO DMA Write channel 2 l
#    IO DMA Write channel 2 o
#  EOP Asserted Channel 2
#    CPU has access to the bus
#  ----------- 82C37 status after memory to IO transfer ---------------------- 
#  CH0:A=0000 C=0000  CH1:A=0000 C=0000  CH2:A=0005 C=FFFF  CH3:A=0000 C=0000
#  MD0:D,A++,  ,VF    MD1:D,A++,  ,VF    MD2:D,A++,  ,VF    MD3:D,A++,  ,VF   
#  Status=04 Mask=F Request=0 Command=00 Temp=00
# 
#  ----------- HTL8237 status before memory to IO transfer -------------------- 
#  CH0:A=0000 C=0000  CH1:A=0000 C=0000  CH2:A=0000 C=0004  CH3:A=0000 C=0000
#  MD0:D,A++,  ,VF    MD1:D,A++,  ,VF    MD2:D,A++,  ,VF    MD3:D,A++,  ,VF   
#  Status=00 Mask=B Request=0 Command=00 Temp=00
#  Start DMA Test 1 Addr++, 5 bytes, address 10000-10004, AutoInit
#  DACK2 Asserted
#    IO DMA Write channel 2 H
#    IO DMA Write channel 2 e
#    IO DMA Write channel 2 l
#    IO DMA Write channel 2 l
#    IO DMA Write channel 2 o
#  EOP Asserted Channel 2
#    CPU has access to the bus
#  ----------- 82C37 status after memory to IO transfer ---------------------- 
#  CH0:A=0000 C=0000  CH1:A=0000 C=0000  CH2:A=0000 C=0004  CH3:A=0000 C=0000
#  MD0:D,A++,  ,VF    MD1:D,A++,  ,VF    MD2:D,A++,  ,VF    MD3:D,A++,  ,VF   
#  Status=04 Mask=B Request=0 Command=00 Temp=00
# 
#  ----------- HTL8237 status before memory to IO transfer -------------------- 
#  CH0:A=0000 C=0000  CH1:A=0000 C=0000  CH2:A=0004 C=0004  CH3:A=0000 C=0000
#  MD0:D,A++,  ,VF    MD1:D,A++,  ,VF    MD2:D,A++,  ,VF    MD3:D,A++,  ,VF   
#  Status=00 Mask=B Request=0 Command=20 Temp=00 Extended Write
#  Start DMA Test 2 Addr--, 5 bytes, address 10004-10000, Extended write
#  DACK2 Asserted
#    IO DMA Write channel 2 o
#    IO DMA Write channel 2 o
#    IO DMA Write channel 2 l
#    IO DMA Write channel 2 l
#    IO DMA Write channel 2 l
#    IO DMA Write channel 2 l
#    IO DMA Write channel 2 e
#    IO DMA Write channel 2 e
#    IO DMA Write channel 2 H
#    IO DMA Write channel 2 H
#  EOP Asserted Channel 2
#    CPU has access to the bus
#  ----------- 82C37 status after memory to IO transfer ---------------------- 
#  CH0:A=0000 C=0000  CH1:A=0000 C=0000  CH2:A=FFFF C=FFFF  CH3:A=0000 C=0000
#  MD0:D,A++,  ,VF    MD1:D,A++,  ,VF    MD2:D,A++,  ,VF    MD3:D,A++,  ,VF   
#  Status=04 Mask=F Request=0 Command=20 Temp=00 Extended Write
# 
#  ----------- HTL8237 status before memory to IO transfer -------------------- 
#  CH0:A=0000 C=0000  CH1:A=0000 C=0000  CH2:A=0004 C=0004  CH3:A=0000 C=0000
#  MD0:D,A++,  ,VF    MD1:D,A++,  ,VF    MD2:D,A++,  ,VF    MD3:D,A++,  ,VF   
#  Status=00 Mask=B Request=0 Command=08 Temp=00 Compressed Timing
#  Start DMA Test 3 Addr--, 5 bytes, address 10004-10000, Compressed timing, Autoinit
#  DACK2 Asserted
#    IO DMA Write channel 2 o
#    IO DMA Write channel 2 l
#    IO DMA Write channel 2 l
#    IO DMA Write channel 2 e
#    IO DMA Write channel 2 H
#  EOP Asserted Channel 2
#    CPU has access to the bus
#  ----------- 82C37 status after memory to IO transfer ---------------------- 
#  CH0:A=0000 C=0000  CH1:A=0000 C=0000  CH2:A=0004 C=0004  CH3:A=0000 C=0000
#  MD0:D,A++,  ,VF    MD1:D,A++,  ,VF    MD2:D,A++,  ,VF    MD3:D,A++,  ,VF   
#  Status=04 Mask=B Request=0 Command=08 Temp=00 Compressed Timing
# 
#  ======================= Demand Transfer Test ================================ 
#  ----------- HTL8237 status before memory to IO transfer -------------------- 
#  CH0:A=0000 C=0000  CH1:A=0000 C=0000  CH2:A=0000 C=0004  CH3:A=0000 C=0000
#  MD0:D,A++,  ,VF    MD1:D,A++,  ,VF    MD2:D,A++,  ,VF    MD3:D,A++,  ,VF   
#  Status=00 Mask=B Request=0 Command=00 Temp=00
#  Start DMA Test 0 Addr++, 5 bytes, address 10000-10004
#  DACK2 Asserted
#    IO DMA Write channel 2 H
#    IO DMA Write channel 2 e
#    IO DMA Write channel 2 l
#    CPU has access to the bus
#  ----------- 82C37 status during memory to IO transfer -------------------- 
#  CH0:A=0000 C=0000  CH1:A=0000 C=0000  CH2:A=0003 C=0001  CH3:A=0000 C=0000
#  MD0:D,A++,  ,VF    MD1:D,A++,  ,VF    MD2:D,A++,  ,VF    MD3:D,A++,  ,VF   
#  Status=40 Mask=B Request=0 Command=00 Temp=00
#  DACK2 Asserted
#    IO DMA Write channel 2 l
#    IO DMA Write channel 2 o
#  EOP Asserted Channel 2
#    CPU has access to the bus
#  ----------- 82C37 status after memory to IO transfer ---------------------- 
#  CH0:A=0000 C=0000  CH1:A=0000 C=0000  CH2:A=0005 C=FFFF  CH3:A=0000 C=0000
#  MD0:D,A++,  ,VF    MD1:D,A++,  ,VF    MD2:D,A++,  ,VF    MD3:D,A++,  ,VF   
#  Status=04 Mask=F Request=0 Command=00 Temp=00
# 
#  ----------- HTL8237 status before memory to IO transfer -------------------- 
#  CH0:A=0000 C=0000  CH1:A=0000 C=0000  CH2:A=0000 C=0004  CH3:A=0000 C=0000
#  MD0:D,A++,  ,VF    MD1:D,A++,  ,VF    MD2:D,A++,  ,VF    MD3:D,A++,  ,VF   
#  Status=00 Mask=B Request=0 Command=00 Temp=00
#  Start DMA Test 1 Addr++, 5 bytes, address 10000-10004, AutoInit
#  DACK2 Asserted
#    IO DMA Write channel 2 H
#    IO DMA Write channel 2 e
#    IO DMA Write channel 2 l
#    CPU has access to the bus
#  ----------- 82C37 status during memory to IO transfer -------------------- 
#  CH0:A=0000 C=0000  CH1:A=0000 C=0000  CH2:A=0003 C=0001  CH3:A=0000 C=0000
#  MD0:D,A++,  ,VF    MD1:D,A++,  ,VF    MD2:D,A++,  ,VF    MD3:D,A++,  ,VF   
#  Status=40 Mask=B Request=0 Command=00 Temp=00
#  DACK2 Asserted
#    IO DMA Write channel 2 l
#    IO DMA Write channel 2 o
#  EOP Asserted Channel 2
#    CPU has access to the bus
#  ----------- 82C37 status after memory to IO transfer ---------------------- 
#  CH0:A=0000 C=0000  CH1:A=0000 C=0000  CH2:A=0000 C=0004  CH3:A=0000 C=0000
#  MD0:D,A++,  ,VF    MD1:D,A++,  ,VF    MD2:D,A++,  ,VF    MD3:D,A++,  ,VF   
#  Status=04 Mask=B Request=0 Command=00 Temp=00
# 
#  ----------- HTL8237 status before memory to IO transfer -------------------- 
#  CH0:A=0000 C=0000  CH1:A=0000 C=0000  CH2:A=0004 C=0004  CH3:A=0000 C=0000
#  MD0:D,A++,  ,VF    MD1:D,A++,  ,VF    MD2:D,A++,  ,VF    MD3:D,A++,  ,VF   
#  Status=00 Mask=B Request=0 Command=20 Temp=00 Extended Write
#  Start DMA Test 2 Addr--, 5 bytes, address 10004-10000, Extended write
#  DACK2 Asserted
#    IO DMA Write channel 2 o
#    IO DMA Write channel 2 o
#    IO DMA Write channel 2 l
#    IO DMA Write channel 2 l
#    IO DMA Write channel 2 l
#    IO DMA Write channel 2 l
#    CPU has access to the bus
#  ----------- 82C37 status during memory to IO transfer -------------------- 
#  CH0:A=0000 C=0000  CH1:A=0000 C=0000  CH2:A=0001 C=0001  CH3:A=0000 C=0000
#  MD0:D,A++,  ,VF    MD1:D,A++,  ,VF    MD2:D,A++,  ,VF    MD3:D,A++,  ,VF   
#  Status=40 Mask=B Request=0 Command=20 Temp=00 Extended Write
#  DACK2 Asserted
#    IO DMA Write channel 2 e
#    IO DMA Write channel 2 e
#    IO DMA Write channel 2 H
#    IO DMA Write channel 2 H
#  EOP Asserted Channel 2
#    CPU has access to the bus
#  ----------- 82C37 status after memory to IO transfer ---------------------- 
#  CH0:A=0000 C=0000  CH1:A=0000 C=0000  CH2:A=FFFF C=FFFF  CH3:A=0000 C=0000
#  MD0:D,A++,  ,VF    MD1:D,A++,  ,VF    MD2:D,A++,  ,VF    MD3:D,A++,  ,VF   
#  Status=04 Mask=F Request=0 Command=20 Temp=00 Extended Write
# 
#  ----------- HTL8237 status before memory to IO transfer -------------------- 
#  CH0:A=0000 C=0000  CH1:A=0000 C=0000  CH2:A=0004 C=0004  CH3:A=0000 C=0000
#  MD0:D,A++,  ,VF    MD1:D,A++,  ,VF    MD2:D,A++,  ,VF    MD3:D,A++,  ,VF   
#  Status=00 Mask=B Request=0 Command=08 Temp=00 Compressed Timing
#  Start DMA Test 3 Addr--, 5 bytes, address 10004-10000, Compressed timing, Autoinit
#  DACK2 Asserted
#    IO DMA Write channel 2 o
#    IO DMA Write channel 2 l
#    IO DMA Write channel 2 l
#    CPU has access to the bus
#  ----------- 82C37 status during memory to IO transfer -------------------- 
#  CH0:A=0000 C=0000  CH1:A=0000 C=0000  CH2:A=0001 C=0001  CH3:A=0000 C=0000
#  MD0:D,A++,  ,VF    MD1:D,A++,  ,VF    MD2:D,A++,  ,VF    MD3:D,A++,  ,VF   
#  Status=40 Mask=B Request=0 Command=08 Temp=00 Compressed Timing
#  DACK2 Asserted
#    IO DMA Write channel 2 e
#    IO DMA Write channel 2 H
#  EOP Asserted Channel 2
#    CPU has access to the bus
#  ----------- 82C37 status after memory to IO transfer ---------------------- 
#  CH0:A=0000 C=0000  CH1:A=0000 C=0000  CH2:A=0004 C=0004  CH3:A=0000 C=0000
#  MD0:D,A++,  ,VF    MD1:D,A++,  ,VF    MD2:D,A++,  ,VF    MD3:D,A++,  ,VF   
#  Status=04 Mask=B Request=0 Command=08 Temp=00 Compressed Timing
# 
#  ======================= Priority Test =============================== 
#  ----------- 82C37 status before Priority test -------------------------- 
#  CH0:A=0002 C=0004  CH1:A=0004 C=0004  CH2:A=0008 C=0004  CH3:A=000A C=0004
#  MD0:S,A++,  ,RD    MD1:S,A++,  ,RD    MD2:S,A++,  ,RD    MD3:S,A++,  ,RD   
#  Status=00 Mask=0 Request=0 Command=00 Temp=00
#  Start Fixed Priority DMA Test 0 Addr++, 5 bytes, address 10000-10004
#  DACK0 Asserted
#  DACK0 Asserted
#  DACK0 Asserted
#  DACK0 Asserted
#  DACK0 Asserted
#  EOP Asserted Channel 0
#  DACK1 Asserted
#  DACK1 Asserted
#  DACK1 Asserted
#  DACK1 Asserted
#  DACK1 Asserted
#  EOP Asserted Channel 1
#  DACK2 Asserted
#  DACK2 Asserted
#  DACK2 Asserted
#  DACK2 Asserted
#  DACK2 Asserted
#  EOP Asserted Channel 2
#  DACK3 Asserted
#  DACK3 Asserted
#  DACK3 Asserted
#  DACK3 Asserted
#  DACK3 Asserted
#  EOP Asserted Channel 3
#  ----------- 82C37 status after Priority test ----------------------------- 
#  CH0:A=0007 C=FFFF  CH1:A=0009 C=FFFF  CH2:A=000D C=FFFF  CH3:A=000F C=FFFF
#  MD0:S,A++,  ,RD    MD1:S,A++,  ,RD    MD2:S,A++,  ,RD    MD3:S,A++,  ,RD   
#  Status=0F Mask=F Request=0 Command=00 Temp=00
# 
#  ----------- 82C37 status before Priority test -------------------------- 
#  CH0:A=0002 C=0004  CH1:A=0004 C=0004  CH2:A=0008 C=0004  CH3:A=000A C=0004
#  MD0:S,A++,  ,RD    MD1:S,A++,  ,RD    MD2:S,A++,  ,RD    MD3:S,A++,  ,RD   
#  Status=00 Mask=0 Request=0 Command=10 Temp=00 Rotate Priority
#  Start Rotate Priority DMA Test 1 Addr--, 5 bytes, address 10000-10004
#  DACK0 Asserted
#  DACK1 Asserted
#  DACK2 Asserted
#  DACK3 Asserted
#  DACK0 Asserted
#  DACK1 Asserted
#  DACK2 Asserted
#  DACK3 Asserted
#  DACK0 Asserted
#  DACK1 Asserted
#  DACK2 Asserted
#  DACK3 Asserted
#  DACK0 Asserted
#  DACK1 Asserted
#  DACK2 Asserted
#  DACK3 Asserted
#  DACK0 Asserted
#  EOP Asserted Channel 0
#  DACK1 Asserted
#  EOP Asserted Channel 1
#  DACK2 Asserted
#  EOP Asserted Channel 2
#  DACK3 Asserted
#  EOP Asserted Channel 3
#  ----------- 82C37 status after Priority test ----------------------------- 
#  CH0:A=0007 C=FFFF  CH1:A=0009 C=FFFF  CH2:A=000D C=FFFF  CH3:A=000F C=FFFF
#  MD0:S,A++,  ,RD    MD1:S,A++,  ,RD    MD2:S,A++,  ,RD    MD3:S,A++,  ,RD   
#  Status=0F Mask=F Request=0 Command=10 Temp=00 Rotate Priority
# 
#  ======================== Memory to Memory Test ============================ 
# 10000 : 48 65 6C 6C 6F 20 57 6F 72 6C 64 00 00 00 00 00 
# 10010 : 00 00 00 00 00 00 00 00 00 00 00 00 00 00 00 00 
# 10020 : 00 00 00 00 00 00 00 00 00 00 00 00 00 00 00 00 
#  Test 0 Address 10001 to 80000, Normal Write, CH0++, CH1++
#  EOP Memory to Memory Transfer
#  ----------- 82C37 status after Memory transfer ---------------------------- 
#  CH0:A=0006 C=FFFB  CH1:A=0005 C=FFFF  CH2:A=000D C=FFFF  CH3:A=000F C=FFFF
#  MD0:B,A++,  ,RD    MD1:B,A++,  ,RD    MD2:B,A++,  ,RD    MD3:B,A++,  ,RD   
#  Status=02 Mask=E Request=0 Command=01 Temp=20 MEM2MEM
# 80000 : 65 6C 6C 6F 20 xx xx xx xx xx xx xx xx xx xx xx 
# 80010 : xx xx xx xx xx xx xx xx xx xx xx xx xx xx xx xx 
# 80020 : xx xx xx xx xx xx xx xx xx xx xx xx xx xx xx xx 
# 
#  Test 1 Address 10007 to 8001E, AutoInit, CH0--, CH1--
#  EOP Memory to Memory Transfer
#  ----------- 82C37 status after Memory transfer ---------------------------- 
